
          - - - - - - - -
          ERROR
          SUBJECT: 
          Message: SQLSTATE[42000]: Syntax error or access violation: 1305 PROCEDURE springhill.spCompareKeyCodes does not exist
          Trace: 
          ProductId: 
          Time: 2013 02 14 06:57:44
          
          - - - - - - - -
          ERROR
          SUBJECT: 
          Message: 
          Trace: #0 /var/www/html/springhill/dailyfeed/couponOfferCron.php(81): Zend_Db_Adapter_Pdo_Abstract->exec('call spCompareK...')
#1 /var/www/html/springhill/dailyfeed/dailybatch.php(74): couponOfferCron(0)
#2 {main}
          ProductId: 
          Time: 2013 02 14 06:57:44
          
          - - - - - - - -
          ERROR
          SUBJECT: /home/springhill/KeyCodes.txt file not exists.
          Message: 
          Trace: 
          ProductId: 
          Time: 2013 02 14 06:57:44
          
          - - - - - - - -
          ERROR
          SUBJECT: 
          Message: SQLSTATE[42000]: Syntax error or access violation: 1305 PROCEDURE springhill.spCompareCatalogOffers does not exist
          Trace: 
          ProductId: 
          Time: 2013 02 14 06:57:44
          
          - - - - - - - -
          ERROR
          SUBJECT: 
          Message: 
          Trace: #0 /var/www/html/springhill/dailyfeed/couponOfferCron.php(107): Zend_Db_Adapter_Pdo_Abstract->exec('call spCompareC...')
#1 /var/www/html/springhill/dailyfeed/dailybatch.php(74): couponOfferCron(0)
#2 {main}
          ProductId: 
          Time: 2013 02 14 06:57:44
          
          - - - - - - - -
          ERROR
          SUBJECT: /home/springhill/CatalogOffers.txt file not exists.
          Message: 
          Trace: 
          ProductId: 
          Time: 2013 02 14 06:57:44
          