
          - - - - - - - -
          ERROR
          SUBJECT: 
          Message: Coupon with the same code already exists.
          Trace: 
          ProductId: 
          Time: 2013 02 28 14:40:03
          
          - - - - - - - -
          ERROR
          SUBJECT: 
          Message: 
          Trace: #0 /var/www/html/springhill/app/code/core/Mage/Core/Model/Resource/Db/Abstract.php(676): Mage::throwException('Coupon with the...')
#1 /var/www/html/springhill/app/code/core/Mage/Core/Model/Resource/Db/Abstract.php(424): Mage_Core_Model_Resource_Db_Abstract->_checkUnique(Object(Mage_SalesRule_Model_Coupon))
#2 /var/www/html/springhill/app/code/core/Mage/Core/Model/Abstract.php(318): Mage_Core_Model_Resource_Db_Abstract->save(Object(Mage_SalesRule_Model_Coupon))
#3 /var/www/html/springhill/app/code/core/Mage/SalesRule/Model/Rule.php(230): Mage_Core_Model_Abstract->save()
#4 /var/www/html/springhill/app/code/core/Mage/Core/Model/Abstract.php(319): Mage_SalesRule_Model_Rule->_afterSave()
#5 /var/www/html/springhill/dailyfeed/couponOfferCron.php(751): Mage_Core_Model_Abstract->save()
#6 /var/www/html/springhill/dailyfeed/couponOfferCron.php(231): generalCouponCode('a:7:{s:4:"type"...', Array, Object(Varien_Db_Adapter_Pdo_Mysql), 0)
#7 /var/www/html/springhill/dailyfeed/dailybatch.php(74): couponOfferCron(0)
#8 {main}
          ProductId: 
          Time: 2013 02 28 14:40:03
          
          - - - - - - - -
          ERROR
          SUBJECT: S03572  not exists.
          Message: 
          Trace: 
          ProductId: 
          Time: 2013 02 28 14:40:03
          